{
  "project_info": {
    "project_number": "893938306517",
    "firebase_url": "https://buy4u-8b978.firebaseio.com",
    "project_id": "buy4u-8b978",
    "storage_bucket": "buy4u-8b978.appspot.com"
  },
  "client": [
    {
      "client_info": {
        "mobilesdk_app_id": "1:893938306517:android:d666fb67450f2430",
        "android_client_info": {
          "package_name": "com.litto.buy4u"
        }
      },
      "oauth_client": [
        {
          "client_id": "893938306517-4lvgimodvev7aqb10rvjjkt46t0vqbln.apps.googleusercontent.com",
          "client_type": 1,
          "android_info": {
            "package_name": "com.litto.buy4u",
            "certificate_hash": "ec627b07eab4c81e3edea099d734bd8eeace6770"
          }
        },
        {
          "client_id": "893938306517-hv5picste184m1uvhag8n62upsg9e3so.apps.googleusercontent.com",
          "client_type": 1,
          "android_info": {
            "package_name": "com.litto.buy4u",
            "certificate_hash": "80806b813398bbd9a86efe7bb5a4ebda4e6da901"
          }
        },
        {
          "client_id": "893938306517-fpo8ldv70pi2qj5nge2ri5cp7560t2uq.apps.googleusercontent.com",
          "client_type": 3
        }
      ],
      "api_key": [
        {
          "current_key": "AIzaSyD3o4_XAUU4IMYOgm_DoUSMe9ERuqKPb8w"
        }
      ],
      "services": {
        "analytics_service": {
          "status": 1
        },
        "appinvite_service": {
          "status": 2,
          "other_platform_oauth_client": [
            {
              "client_id": "893938306517-fpo8ldv70pi2qj5nge2ri5cp7560t2uq.apps.googleusercontent.com",
              "client_type": 3
            }
          ]
        },
        "ads_service": {
          "status": 2
        }
      }
    },
    {
      "client_info": {
        "mobilesdk_app_id": "1:893938306517:android:e077e9f0f684c658",
        "android_client_info": {
          "package_name": "com.tom.buy4u.client"
        }
      },
      "oauth_client": [
        {
          "client_id": "893938306517-p6nuc2g3gcfghl4kl2mo8jvr59uoi51g.apps.googleusercontent.com",
          "client_type": 1,
          "android_info": {
            "package_name": "com.tom.buy4u.client",
            "certificate_hash": "80806b813398bbd9a86efe7bb5a4ebda4e6da901"
          }
        },
        {
          "client_id": "893938306517-fpo8ldv70pi2qj5nge2ri5cp7560t2uq.apps.googleusercontent.com",
          "client_type": 3
        }
      ],
      "api_key": [
        {
          "current_key": "AIzaSyD3o4_XAUU4IMYOgm_DoUSMe9ERuqKPb8w"
        }
      ],
      "services": {
        "analytics_service": {
          "status": 1
        },
        "appinvite_service": {
          "status": 2,
          "other_platform_oauth_client": [
            {
              "client_id": "893938306517-fpo8ldv70pi2qj5nge2ri5cp7560t2uq.apps.googleusercontent.com",
              "client_type": 3
            }
          ]
        },
        "ads_service": {
          "status": 2
        }
      }
    }
  ],
  "configuration_version": "1"
}